pixelTop_tb.vcd
$date
	Thu Nov 18 21:55:04 2021
$end
$version
	Icarus Verilog
$end
$timescale
	1ps
$end
$scope module pixelTop_tb $end
$var wire 8 ! pixData1 [7:0] $end
$var wire 8 " pixData2 [7:0] $end
$var wire 8 # pixData3 [7:0] $end
$var wire 8 $ pixData4 [7:0] $end
$var reg 1 % clk $end
$var reg 1 & reset $end
$scope module pt $end
$var wire 1 % clk $end
$var wire 8 ' pixData1 [7:0] $end
$var wire 8 ( pixData2 [7:0] $end
$var wire 8 ) pixData3 [7:0] $end
$var wire 8 * pixData4 [7:0] $end
$var wire 1 & reset $end
$var wire 1 + read2 $end
$var wire 1 , read1 $end
$var wire 1 - expose $end
$var wire 1 . erase $end
$var wire 1 / convert $end
$var wire 1 0 anaRamp $end
$var wire 1 1 anaBias1 $end
$var reg 1 2 anaReset $end
$var reg 8 3 data1 [7:0] $end
$var reg 8 4 data2 [7:0] $end
$var reg 32 5 pixelDataOut [31:0] $end
$scope module fms1 $end
$var wire 1 % clk $end
$var wire 1 & reset $end
$var reg 1 / convert $end
$var reg 1 . erase $end
$var reg 1 - expose $end
$var reg 3 6 next_state [2:0] $end
$var reg 1 , read1 $end
$var reg 1 + read2 $end
$var reg 3 7 state [2:0] $end
$var integer 32 8 counter [31:0] $end
$upscope $end
$scope module pa1 $end
$var wire 8 9 DATA1 [7:0] $end
$var wire 8 : DATA2 [7:0] $end
$var wire 8 ; DATA3 [7:0] $end
$var wire 8 < DATA4 [7:0] $end
$var wire 1 . ERASE $end
$var wire 1 - EXPOSE $end
$var wire 1 0 RAMP $end
$var wire 1 , READ1 $end
$var wire 1 + READ2 $end
$var wire 1 2 RESET $end
$var wire 1 1 VBN1 $end
$scope module ps1 $end
$var wire 8 = DATA [7:0] $end
$var wire 1 . ERASE $end
$var wire 1 - EXPOSE $end
$var wire 1 0 RAMP $end
$var wire 1 , READ $end
$var wire 1 2 RESET $end
$var wire 1 1 VBN1 $end
$var reg 1 > cmp $end
$var reg 8 ? p_data [7:0] $end
$var real 1 @ adc $end
$var real 1 A lsb $end
$var real 1 B tmp $end
$var real 1 C v_erase $end
$upscope $end
$scope module ps2 $end
$var wire 8 D DATA [7:0] $end
$var wire 1 . ERASE $end
$var wire 1 - EXPOSE $end
$var wire 1 0 RAMP $end
$var wire 1 , READ $end
$var wire 1 2 RESET $end
$var wire 1 1 VBN1 $end
$var reg 1 E cmp $end
$var reg 8 F p_data [7:0] $end
$var real 1 G adc $end
$var real 1 H lsb $end
$var real 1 I tmp $end
$var real 1 J v_erase $end
$upscope $end
$scope module ps3 $end
$var wire 8 K DATA [7:0] $end
$var wire 1 . ERASE $end
$var wire 1 - EXPOSE $end
$var wire 1 0 RAMP $end
$var wire 1 + READ $end
$var wire 1 2 RESET $end
$var wire 1 1 VBN1 $end
$var reg 1 L cmp $end
$var reg 8 M p_data [7:0] $end
$var real 1 N adc $end
$var real 1 O lsb $end
$var real 1 P tmp $end
$var real 1 Q v_erase $end
$upscope $end
$scope module ps4 $end
$var wire 8 R DATA [7:0] $end
$var wire 1 . ERASE $end
$var wire 1 - EXPOSE $end
$var wire 1 0 RAMP $end
$var wire 1 + READ $end
$var wire 1 2 RESET $end
$var wire 1 1 VBN1 $end
$var reg 1 S cmp $end
$var reg 8 T p_data [7:0] $end
$var real 1 U adc $end
$var real 1 V lsb $end
$var real 1 W tmp $end
$var real 1 X v_erase $end
$upscope $end
$upscope $end
$upscope $end
$upscope $end
$enddefinitions $end
#500000
$dumpvars
r1.2 X
r0 W
r0.004705882352941176 V
r0 U
bx T
xS
bx R
r1.2 Q
r0 P
r0.004705882352941176 O
r0 N
bx M
xL
bx K
r1.2 J
r0 I
r0.004705882352941176 H
r0 G
bx F
xE
bx D
r1.2 C
r0 B
r0.004705882352941176 A
r0 @
bx ?
x>
bx =
bx <
bx ;
bx :
bx 9
b0 8
b0 7
b0 6
b0 5
b0 4
b0 3
x2
x1
00
0/
x.
x-
x,
x+
bx *
bx )
bx (
bx '
0&
1%
bx $
bx #
bx "
bx !
$end
#1000000
b0 #
b0 )
b0 ;
b0 K
b0 $
b0 *
b0 <
b0 R
b0 !
b0 '
b0 9
b0 =
b0 "
b0 (
b0 :
b0 D
0S
b0 T
r1.2 W
0L
b0 M
r1.2 P
0E
b0 F
r1.2 I
0>
b0 ?
r1.2 B
0-
0+
0,
1.
01
0%
#1500000
b1 8
1%
#2000000
0%
#2500000
b10 8
1%
#3000000
0%
#3500000
b11 8
1%
#4000000
0%
#4500000
b100 8
1%
#5000000
0%
#5500000
b101 8
1%
#6000000
0%
#6500000
b101 7
b1 6
b110 8
1%
#7000000
0.
0%
#7500000
b1 7
b0 8
1%
#8000000
1-
0%
#8500000
r1.197647058823529 W
r1.19755294117647 P
r1.197882352941176 I
r1.197788235294118 B
11
b1 8
1%
#9000000
01
0%
#9500000
r1.195576470588235 B
r1.195764705882353 I
r1.195105882352941 P
r1.195294117647059 W
11
b10 8
1%
#10000000
01
0%
#10500000
r1.192941176470588 W
r1.192658823529412 P
r1.193647058823529 I
r1.193364705882353 B
11
b11 8
1%
#11000000
01
0%
#11500000
r1.191152941176471 B
r1.191529411764706 I
r1.190211764705882 P
r1.190588235294117 W
11
b100 8
1%
#12000000
01
0%
#12500000
r1.188235294117647 W
r1.187764705882353 P
r1.189411764705882 I
r1.188941176470588 B
11
b101 8
1%
#13000000
01
0%
#13500000
r1.186729411764706 B
r1.187294117647059 I
r1.185317647058823 P
r1.185882352941176 W
11
b110 8
1%
#14000000
01
0%
#14500000
r1.183529411764705 W
r1.182870588235294 P
r1.185176470588235 I
r1.184517647058823 B
11
b111 8
1%
#15000000
01
0%
#15500000
r1.182305882352941 B
r1.183058823529411 I
r1.180423529411764 P
r1.181176470588235 W
11
b1000 8
1%
#16000000
01
0%
#16500000
r1.178823529411764 W
r1.177976470588235 P
r1.180941176470588 I
r1.180094117647059 B
11
b1001 8
1%
#17000000
01
0%
#17500000
r1.177882352941176 B
r1.178823529411764 I
r1.175529411764705 P
r1.176470588235293 W
11
b1010 8
1%
#18000000
01
0%
#18500000
r1.174117647058823 W
r1.173082352941176 P
r1.176705882352941 I
r1.175670588235294 B
11
b1011 8
1%
#19000000
01
0%
#19500000
r1.173458823529412 B
r1.174588235294117 I
r1.170635294117646 P
r1.171764705882352 W
11
b1100 8
1%
#20000000
01
0%
#20500000
r1.169411764705881 W
r1.168188235294117 P
r1.172470588235294 I
r1.171247058823529 B
11
b1101 8
1%
#21000000
01
0%
#21500000
r1.169035294117647 B
r1.17035294117647 I
r1.165741176470587 P
r1.167058823529411 W
11
b1110 8
1%
#22000000
01
0%
#22500000
r1.16470588235294 W
r1.163294117647058 P
r1.168235294117647 I
r1.166823529411765 B
11
b1111 8
1%
#23000000
01
0%
#23500000
r1.164611764705882 B
r1.166117647058823 I
r1.160847058823528 P
r1.162352941176469 W
11
b10000 8
1%
#24000000
01
0%
#24500000
r1.159999999999999 W
r1.158399999999999 P
r1.163999999999999 I
r1.1624 B
11
b10001 8
1%
#25000000
01
0%
#25500000
r1.160188235294118 B
r1.161882352941176 I
r1.15595294117647 P
r1.157647058823528 W
11
b10010 8
1%
#26000000
01
0%
#26500000
r1.155294117647057 W
r1.15350588235294 P
r1.159764705882352 I
r1.157976470588235 B
11
b10011 8
1%
#27000000
01
0%
#27500000
r1.155764705882353 B
r1.157647058823529 I
r1.151058823529411 P
r1.152941176470587 W
11
b10100 8
1%
#28000000
01
0%
#28500000
r1.150588235294116 W
r1.148611764705881 P
r1.155529411764705 I
r1.15355294117647 B
11
b10101 8
1%
#29000000
01
0%
#29500000
r1.151341176470588 B
r1.153411764705882 I
r1.146164705882352 P
r1.148235294117645 W
11
b10110 8
1%
#30000000
01
0%
#30500000
r1.145882352941175 W
r1.143717647058822 P
r1.151294117647058 I
r1.149129411764706 B
11
b10111 8
1%
#31000000
01
0%
#31500000
r1.146917647058823 B
r1.149176470588235 I
r1.141270588235293 P
r1.143529411764704 W
11
b11000 8
1%
#32000000
01
0%
#32500000
r1.141176470588233 W
r1.138823529411763 P
r1.147058823529411 I
r1.144705882352941 B
11
b11001 8
1%
#33000000
01
0%
#33500000
r1.142494117647059 B
r1.144941176470587 I
r1.136376470588234 P
r1.138823529411763 W
11
b11010 8
1%
#34000000
01
0%
#34500000
r1.136470588235292 W
r1.133929411764704 P
r1.142823529411764 I
r1.140282352941176 B
11
b11011 8
1%
#35000000
01
0%
#35500000
r1.138070588235294 B
r1.14070588235294 I
r1.131482352941175 P
r1.134117647058821 W
11
b11100 8
1%
#36000000
01
0%
#36500000
r1.131764705882351 W
r1.129035294117645 P
r1.138588235294117 I
r1.135858823529412 B
11
b11101 8
1%
#37000000
01
0%
#37500000
r1.133647058823529 B
r1.136470588235293 I
r1.126588235294116 P
r1.12941176470588 W
11
b11110 8
1%
#38000000
01
0%
#38500000
r1.127058823529409 W
r1.124141176470586 P
r1.13435294117647 I
r1.131435294117647 B
11
b11111 8
1%
#39000000
01
0%
#39500000
r1.129223529411765 B
r1.132235294117646 I
r1.121694117647057 P
r1.124705882352939 W
11
b100000 8
1%
#40000000
01
0%
#40500000
r1.122352941176468 W
r1.119247058823527 P
r1.130117647058823 I
r1.127011764705882 B
11
b100001 8
1%
#41000000
01
0%
#41500000
r1.1248 B
r1.127999999999999 I
r1.116799999999998 P
r1.119999999999997 W
11
b100010 8
1%
#42000000
01
0%
#42500000
r1.117647058823527 W
r1.114352941176469 P
r1.125882352941175 I
r1.122588235294117 B
11
b100011 8
1%
#43000000
01
0%
#43500000
r1.120376470588235 B
r1.123764705882352 I
r1.111905882352939 P
r1.115294117647056 W
11
b100100 8
1%
#44000000
01
0%
#44500000
r1.112941176470585 W
r1.10945882352941 P
r1.121647058823528 I
r1.118164705882353 B
11
b100101 8
1%
#45000000
01
0%
#45500000
r1.11595294117647 B
r1.119529411764705 I
r1.10701176470588 P
r1.110588235294115 W
11
b100110 8
1%
#46000000
01
0%
#46500000
r1.108235294117644 W
r1.104564705882351 P
r1.117411764705881 I
r1.113741176470588 B
11
b100111 8
1%
#47000000
01
0%
#47500000
r1.111529411764706 B
r1.115294117647058 I
r1.102117647058821 P
r1.105882352941173 W
11
b101000 8
1%
#48000000
01
0%
#48500000
r1.103529411764703 W
r1.099670588235292 P
r1.113176470588234 I
r1.109317647058823 B
11
b101001 8
1%
#49000000
01
0%
#49500000
r1.107105882352941 B
r1.111058823529411 I
r1.097223529411762 P
r1.101176470588232 W
11
b101010 8
1%
#50000000
01
0%
#50500000
r1.098823529411761 W
r1.094776470588233 P
r1.108941176470587 I
r1.104894117647059 B
11
b101011 8
1%
#51000000
01
0%
#51500000
r1.102682352941176 B
r1.106823529411763 I
r1.092329411764703 P
r1.096470588235291 W
11
b101100 8
1%
#52000000
01
0%
#52500000
r1.09411764705882 W
r1.089882352941174 P
r1.10470588235294 I
r1.100470588235294 B
11
b101101 8
1%
#53000000
01
0%
#53500000
r1.098258823529412 B
r1.102588235294116 I
r1.087435294117644 P
r1.091764705882349 W
11
b101110 8
1%
#54000000
01
0%
#54500000
r1.089411764705879 W
r1.084988235294115 P
r1.100470588235293 I
r1.096047058823529 B
11
b101111 8
1%
#55000000
01
0%
#55500000
r1.093835294117647 B
r1.098352941176469 I
r1.082541176470585 P
r1.087058823529408 W
11
b110000 8
1%
#56000000
01
0%
#56500000
r1.084705882352937 W
r1.080094117647056 P
r1.096235294117646 I
r1.091623529411764 B
11
b110001 8
1%
#57000000
01
0%
#57500000
r1.089411764705882 B
r1.094117647058822 I
r1.077647058823527 P
r1.082352941176467 W
11
b110010 8
1%
#58000000
01
0%
#58500000
r1.079999999999996 W
r1.075199999999997 P
r1.091999999999999 I
r1.0872 B
11
b110011 8
1%
#59000000
01
0%
#59500000
r1.084988235294117 B
r1.089882352941175 I
r1.072752941176468 P
r1.077647058823525 W
11
b110100 8
1%
#60000000
01
0%
#60500000
r1.075294117647055 W
r1.070305882352938 P
r1.087764705882351 I
r1.082776470588235 B
11
b110101 8
1%
#61000000
01
0%
#61500000
r1.080564705882353 B
r1.085647058823528 I
r1.067858823529409 P
r1.072941176470584 W
11
b110110 8
1%
#62000000
01
0%
#62500000
r1.070588235294113 W
r1.065411764705879 P
r1.083529411764704 I
r1.07835294117647 B
11
b110111 8
1%
#63000000
01
0%
#63500000
r1.076141176470588 B
r1.081411764705881 I
r1.06296470588235 P
r1.068235294117643 W
11
b111000 8
1%
#64000000
01
0%
#64500000
r1.065882352941172 W
r1.06051764705882 P
r1.079294117647057 I
r1.073929411764706 B
11
b111001 8
1%
#65000000
01
0%
#65500000
r1.071717647058823 B
r1.077176470588234 I
r1.058070588235291 P
r1.063529411764701 W
11
b111010 8
1%
#66000000
01
0%
#66500000
r1.061176470588231 W
r1.055623529411761 P
r1.07505882352941 I
r1.069505882352941 B
11
b111011 8
1%
#67000000
01
0%
#67500000
r1.067294117647059 B
r1.072941176470587 I
r1.053176470588232 P
r1.05882352941176 W
11
b111100 8
1%
#68000000
01
0%
#68500000
r1.056470588235289 W
r1.050729411764702 P
r1.070823529411763 I
r1.065082352941176 B
11
b111101 8
1%
#69000000
01
0%
#69500000
r1.062870588235294 B
r1.068705882352939 I
r1.048282352941173 P
r1.054117647058818 W
11
b111110 8
1%
#70000000
01
0%
#70500000
r1.051764705882348 W
r1.045835294117643 P
r1.066588235294116 I
r1.060658823529411 B
11
b111111 8
1%
#71000000
01
0%
#71500000
r1.058447058823529 B
r1.064470588235292 I
r1.043388235294114 P
r1.049411764705877 W
11
b1000000 8
1%
#72000000
01
0%
#72500000
r1.047058823529406 W
r1.040941176470584 P
r1.062352941176469 I
r1.056235294117647 B
11
b1000001 8
1%
#73000000
01
0%
#73500000
r1.054023529411764 B
r1.060235294117645 I
r1.038494117647055 P
r1.044705882352936 W
11
b1000010 8
1%
#74000000
01
0%
#74500000
r1.042352941176465 W
r1.036047058823526 P
r1.058117647058822 I
r1.051811764705882 B
11
b1000011 8
1%
#75000000
01
0%
#75500000
r1.0496 B
r1.055999999999998 I
r1.033599999999996 P
r1.039999999999994 W
11
b1000100 8
1%
#76000000
01
0%
#76500000
r1.037647058823524 W
r1.031152941176467 P
r1.053882352941174 I
r1.047388235294117 B
11
b1000101 8
1%
#77000000
01
0%
#77500000
r1.045176470588235 B
r1.051764705882351 I
r1.028705882352937 P
r1.035294117647053 W
11
b1000110 8
1%
#78000000
01
0%
#78500000
r1.032941176470582 W
r1.026258823529408 P
r1.049647058823527 I
r1.042964705882353 B
11
b1000111 8
1%
#79000000
01
0%
#79500000
r1.04075294117647 B
r1.047529411764704 I
r1.023811764705878 P
r1.030588235294112 W
11
b1001000 8
1%
#80000000
01
0%
#80500000
r1.028235294117641 W
r1.021364705882349 P
r1.04541176470588 I
r1.038541176470588 B
11
b1001001 8
1%
#81000000
01
0%
#81500000
r1.036329411764705 B
r1.043294117647057 I
r1.018917647058819 P
r1.02588235294117 W
11
b1001010 8
1%
#82000000
01
0%
#82500000
r1.0235294117647 W
r1.01647058823529 P
r1.041176470588233 I
r1.034117647058823 B
11
b1001011 8
1%
#83000000
01
0%
#83500000
r1.031905882352941 B
r1.03905882352941 I
r1.01402352941176 P
r1.021176470588229 W
11
b1001100 8
1%
#84000000
01
0%
#84500000
r1.018823529411758 W
r1.011576470588231 P
r1.036941176470586 I
r1.029694117647058 B
11
b1001101 8
1%
#85000000
01
0%
#85500000
r1.027482352941176 B
r1.034823529411762 I
r1.009129411764701 P
r1.016470588235288 W
11
b1001110 8
1%
#86000000
01
0%
#86500000
r1.014117647058817 W
r1.006682352941172 P
r1.032705882352939 I
r1.025270588235294 B
11
b1001111 8
1%
#87000000
01
0%
#87500000
r1.023058823529411 B
r1.030588235294115 I
r1.004235294117642 P
r1.011764705882346 W
11
b1010000 8
1%
#88000000
01
0%
#88500000
r1.009411764705876 W
r1.001788235294113 P
r1.028470588235292 I
r1.020847058823529 B
11
b1010001 8
1%
#89000000
01
0%
#89500000
r1.018635294117647 B
r1.026352941176468 I
r0.9993411764705836 P
r1.007058823529405 W
11
b1010010 8
1%
#90000000
01
0%
#90500000
r1.004705882352934 W
r0.9968941176470543 P
r1.024235294117645 I
r1.016423529411764 B
11
b1010011 8
1%
#91000000
01
0%
#91500000
r1.014211764705882 B
r1.022117647058821 I
r0.9944470588235249 P
r1.002352941176464 W
11
b1010100 8
1%
#92000000
01
0%
#92500000
r0.9999999999999932 W
r0.9919999999999956 P
r1.019999999999998 I
r1.012 B
11
b1010101 8
1%
#93000000
01
0%
#93500000
r1.009788235294117 B
r1.017882352941174 I
r0.9895529411764662 P
r0.9976470588235227 W
11
b1010110 8
1%
#94000000
01
0%
#94500000
r0.9952941176470521 W
r0.9871058823529368 P
r1.01576470588235 I
r1.007576470588235 B
11
b1010111 8
1%
#95000000
01
0%
#95500000
r1.005364705882352 B
r1.013647058823527 I
r0.9846588235294075 P
r0.9929411764705816 W
11
b1011000 8
1%
#96000000
01
0%
#96500000
r0.990588235294111 W
r0.9822117647058781 P
r1.011529411764703 I
r1.00315294117647 B
11
b1011001 8
1%
#97000000
01
0%
#97500000
r1.000941176470588 B
r1.00941176470588 I
r0.9797647058823488 P
r0.9882352941176404 W
11
b1011010 8
1%
#98000000
01
0%
#98500000
r0.9858823529411699 W
r0.9773176470588194 P
r1.007294117647056 I
r0.9987294117647054 B
11
b1011011 8
1%
#99000000
01
0%
#99500000
r0.9965176470588231 B
r1.005176470588233 I
r0.97487058823529 P
r0.9835294117646993 W
11
b1011100 8
1%
#100000000
01
0%
#100500000
r0.9811764705882288 W
r0.9724235294117607 P
r1.003058823529409 I
r0.9943058823529407 B
11
b1011101 8
1%
#101000000
01
0%
#101500000
r0.9920941176470583 B
r1.000941176470586 I
r0.9699764705882313 P
r0.9788235294117582 W
11
b1011110 8
1%
#102000000
01
0%
#102500000
r0.9764705882352877 W
r0.967529411764702 P
r0.998823529411762 I
r0.989882352941176 B
11
b1011111 8
1%
#103000000
01
0%
#103500000
r0.9876705882352936 B
r0.9967058823529384 I
r0.9650823529411726 P
r0.9741176470588171 W
11
b1100000 8
1%
#104000000
01
0%
#104500000
r0.9717647058823465 W
r0.9626352941176433 P
r0.9945882352941149 I
r0.9854588235294113 B
11
b1100001 8
1%
#105000000
01
0%
#105500000
r0.9832470588235289 B
r0.9924705882352913 I
r0.9601882352941139 P
r0.969411764705876 W
11
b1100010 8
1%
#106000000
01
0%
#106500000
r0.9670588235294054 W
r0.9577411764705845 P
r0.9903529411764678 I
r0.9810352941176466 B
11
b1100011 8
1%
#107000000
01
0%
#107500000
r0.9788235294117642 B
r0.9882352941176442 I
r0.9552941176470552 P
r0.9647058823529349 W
11
b1100100 8
1%
#108000000
01
0%
#108500000
r0.9623529411764643 W
r0.9528470588235258 P
r0.9861176470588207 I
r0.9766117647058818 B
11
b1100101 8
1%
#109000000
01
0%
#109500000
r0.9743999999999995 B
r0.9839999999999971 I
r0.9503999999999965 P
r0.9599999999999937 W
11
b1100110 8
1%
#110000000
01
0%
#110500000
r0.9576470588235232 W
r0.9479529411764671 P
r0.9818823529411735 I
r0.9721882352941171 B
11
b1100111 8
1%
#111000000
01
0%
#111500000
r0.9699764705882348 B
r0.97976470588235 I
r0.9455058823529378 P
r0.9552941176470526 W
11
b1101000 8
1%
#112000000
01
0%
#112500000
r0.9529411764705821 W
r0.9430588235294084 P
r0.9776470588235264 I
r0.9677647058823524 B
11
b1101001 8
1%
#113000000
01
0%
#113500000
r0.9655529411764701 B
r0.9755294117647029 I
r0.940611764705879 P
r0.9505882352941115 W
11
b1101010 8
1%
#114000000
01
0%
#114500000
r0.948235294117641 W
r0.9381647058823497 P
r0.9734117647058793 I
r0.9633411764705877 B
11
b1101011 8
1%
#115000000
01
0%
#115500000
r0.9611294117647053 B
r0.9712941176470558 I
r0.9357176470588203 P
r0.9458823529411704 W
11
b1101100 8
1%
#116000000
01
0%
#116500000
r0.9435294117646998 W
r0.933270588235291 P
r0.9691764705882322 I
r0.958917647058823 B
11
b1101101 8
1%
#117000000
01
0%
#117500000
r0.9567058823529406 B
r0.9670588235294086 I
r0.9308235294117616 P
r0.9411764705882293 W
11
b1101110 8
1%
#118000000
01
0%
#118500000
r0.9388235294117587 W
r0.9283764705882322 P
r0.9649411764705851 I
r0.9544941176470583 B
11
b1101111 8
1%
#119000000
01
0%
#119500000
r0.9522823529411759 B
r0.9628235294117615 I
r0.9259294117647029 P
r0.9364705882352882 W
11
b1110000 8
1%
#120000000
01
0%
#120500000
r0.9341176470588176 W
r0.9234823529411735 P
r0.960705882352938 I
r0.9500705882352936 B
11
b1110001 8
1%
#121000000
01
0%
#121500000
r0.9478588235294112 B
r0.9585882352941144 I
r0.9210352941176442 P
r0.9317647058823471 W
11
b1110010 8
1%
#122000000
01
0%
#122500000
r0.9294117647058765 W
r0.9185882352941148 P
r0.9564705882352909 I
r0.9456470588235288 B
11
b1110011 8
1%
#123000000
01
0%
#123500000
r0.9434352941176465 B
r0.9543529411764673 I
r0.9161411764705855 P
r0.9270588235294059 W
11
b1110100 8
1%
#124000000
01
0%
#124500000
r0.9247058823529354 W
r0.9136941176470561 P
r0.9522352941176437 I
r0.9412235294117641 B
11
b1110101 8
1%
#125000000
01
0%
#125500000
r0.9390117647058818 B
r0.9501176470588202 I
r0.9112470588235267 P
r0.9223529411764648 W
11
b1110110 8
1%
#126000000
01
0%
#126500000
r0.9199999999999943 W
r0.9087999999999974 P
r0.9479999999999966 I
r0.9367999999999994 B
11
b1110111 8
1%
#127000000
01
0%
#127500000
r0.9345882352941171 B
r0.9458823529411731 I
r0.906352941176468 P
r0.9176470588235237 W
11
b1111000 8
1%
#128000000
01
0%
#128500000
r0.9152941176470532 W
r0.9039058823529387 P
r0.9437647058823495 I
r0.9323764705882347 B
11
b1111001 8
1%
#129000000
01
0%
#129500000
r0.9301647058823523 B
r0.941647058823526 I
r0.9014588235294093 P
r0.9129411764705826 W
11
b1111010 8
1%
#130000000
01
0%
#130500000
r0.910588235294112 W
r0.89901176470588 P
r0.9395294117647024 I
r0.92795294117647 B
11
b1111011 8
1%
#131000000
01
0%
#131500000
r0.9257411764705876 B
r0.9374117647058788 I
r0.8965647058823506 P
r0.9082352941176415 W
11
b1111100 8
1%
#132000000
01
0%
#132500000
r0.9058823529411709 W
r0.8941176470588212 P
r0.9352941176470553 I
r0.9235294117647053 B
11
b1111101 8
1%
#133000000
01
0%
#133500000
r0.9213176470588229 B
r0.9331764705882317 I
r0.8916705882352919 P
r0.9035294117647004 W
11
b1111110 8
1%
#134000000
01
0%
#134500000
r0.9011764705882298 W
r0.8892235294117625 P
r0.9310588235294082 I
r0.9191058823529406 B
11
b1111111 8
1%
#135000000
01
0%
#135500000
r0.9168941176470582 B
r0.9289411764705846 I
r0.8867764705882332 P
r0.8988235294117592 W
11
b10000000 8
1%
#136000000
01
0%
#136500000
r0.8964705882352887 W
r0.8843294117647038 P
r0.926823529411761 I
r0.9146823529411758 B
11
b10000001 8
1%
#137000000
01
0%
#137500000
r0.9124705882352935 B
r0.9247058823529375 I
r0.8818823529411745 P
r0.8941176470588181 W
11
b10000010 8
1%
#138000000
01
0%
#138500000
r0.8917647058823476 W
r0.8794352941176451 P
r0.9225882352941139 I
r0.9102588235294111 B
11
b10000011 8
1%
#139000000
01
0%
#139500000
r0.9080470588235288 B
r0.9204705882352904 I
r0.8769882352941157 P
r0.889411764705877 W
11
b10000100 8
1%
#140000000
01
0%
#140500000
r0.8870588235294065 W
r0.8745411764705864 P
r0.9183529411764668 I
r0.9058352941176464 B
11
b10000101 8
1%
#141000000
01
0%
#141500000
r0.903623529411764 B
r0.9162352941176433 I
r0.872094117647057 P
r0.8847058823529359 W
11
b10000110 8
1%
#142000000
01
0%
#142500000
r0.8823529411764653 W
r0.8696470588235277 P
r0.9141176470588197 I
r0.9014117647058817 B
11
b10000111 8
1%
#143000000
01
0%
#143500000
r0.8991999999999993 B
r0.9119999999999961 I
r0.8671999999999983 P
r0.8799999999999948 W
11
b10001000 8
1%
#144000000
01
0%
#144500000
r0.8776470588235242 W
r0.8647529411764689 P
r0.9098823529411726 I
r0.896988235294117 B
11
b10001001 8
1%
#145000000
01
0%
#145500000
r0.8947764705882346 B
r0.907764705882349 I
r0.8623058823529396 P
r0.8752941176470537 W
11
b10001010 8
1%
#146000000
01
0%
#146500000
r0.8729411764705831 W
r0.8598588235294102 P
r0.9056470588235255 I
r0.8925647058823523 B
11
b10001011 8
1%
#147000000
01
0%
#147500000
r0.8903529411764699 B
r0.9035294117647019 I
r0.8574117647058809 P
r0.8705882352941126 W
11
b10001100 8
1%
#148000000
01
0%
#148500000
r0.868235294117642 W
r0.8549647058823515 P
r0.9014117647058784 I
r0.8881411764705875 B
11
b10001101 8
1%
#149000000
01
0%
#149500000
r0.8859294117647052 B
r0.8992941176470548 I
r0.8525176470588222 P
r0.8658823529411714 W
11
b10001110 8
1%
#150000000
01
0%
#150500000
r0.8635294117647009 W
r0.8500705882352928 P
r0.8971764705882312 I
r0.8837176470588228 B
11
b10001111 8
1%
#151000000
01
0%
#151500000
r0.8815058823529405 B
r0.8950588235294077 I
r0.8476235294117634 P
r0.8611764705882303 W
11
b10010000 8
1%
#152000000
01
0%
#152500000
r0.8588235294117598 W
r0.8451764705882341 P
r0.8929411764705841 I
r0.8792941176470581 B
11
b10010001 8
1%
#153000000
01
0%
#153500000
r0.8770823529411758 B
r0.8908235294117606 I
r0.8427294117647047 P
r0.8564705882352892 W
11
b10010010 8
1%
#154000000
01
0%
#154500000
r0.8541176470588187 W
r0.8402823529411754 P
r0.888705882352937 I
r0.8748705882352934 B
11
b10010011 8
1%
#155000000
01
0%
#155500000
r0.872658823529411 B
r0.8865882352941135 I
r0.837835294117646 P
r0.8517647058823481 W
11
b10010100 8
1%
#156000000
01
0%
#156500000
r0.8494117647058775 W
r0.8353882352941167 P
r0.8844705882352899 I
r0.8704470588235287 B
11
b10010101 8
1%
#157000000
01
0%
#157500000
r0.8682352941176463 B
r0.8823529411764663 I
r0.8329411764705873 P
r0.847058823529407 W
11
b10010110 8
1%
#158000000
01
0%
#158500000
r0.8447058823529364 W
r0.8304941176470579 P
r0.8802352941176428 I
r0.866023529411764 B
11
b10010111 8
1%
#159000000
01
0%
#159500000
r0.8638117647058816 B
r0.8781176470588192 I
r0.8280470588235286 P
r0.8423529411764659 W
11
b10011000 8
1%
#160000000
01
0%
#160500000
r0.8399999999999953 W
r0.8255999999999992 P
r0.8759999999999957 I
r0.8615999999999993 B
11
b10011001 8
1%
#161000000
01
0%
#161500000
r0.8593882352941169 B
r0.8738823529411721 I
r0.8231529411764699 P
r0.8376470588235247 W
11
b10011010 8
1%
#162000000
01
0%
#162500000
r0.8352941176470542 W
r0.8207058823529405 P
r0.8717647058823486 I
r0.8571764705882345 B
11
b10011011 8
1%
#163000000
01
0%
#163500000
r0.8549647058823522 B
r0.869647058823525 I
r0.8182588235294112 P
r0.8329411764705836 W
11
b10011100 8
1%
#164000000
01
0%
#164500000
r0.8305882352941131 W
r0.8158117647058818 P
r0.8675294117647014 I
r0.8527529411764698 B
11
b10011101 8
1%
#165000000
01
0%
#165500000
r0.8505411764705875 B
r0.8654117647058779 I
r0.8133647058823524 P
r0.8282352941176425 W
11
b10011110 8
1%
#166000000
01
0%
#166500000
r0.825882352941172 W
r0.8109176470588231 P
r0.8632941176470543 I
r0.8483294117647051 B
11
b10011111 8
1%
#167000000
01
0%
#167500000
r0.8461176470588228 B
r0.8611764705882308 I
r0.8084705882352937 P
r0.8235294117647014 W
11
b10100000 8
1%
#168000000
01
0%
#168500000
r0.8211764705882308 W
r0.8060235294117644 P
r0.8590588235294072 I
r0.8439058823529404 B
11
b10100001 8
1%
#169000000
01
0%
#169500000
r0.841694117647058 B
r0.8569411764705837 I
r0.803576470588235 P
r0.8188235294117603 W
11
b10100010 8
1%
#170000000
01
0%
#170500000
r0.8164705882352897 W
r0.8011294117647056 P
r0.8548235294117601 I
r0.8394823529411757 B
11
b10100011 8
1%
#171000000
01
0%
#171500000
r0.8372705882352933 B
r0.8527058823529365 I
r0.7986823529411763 P
r0.8141176470588192 W
11
b10100100 8
1%
#172000000
01
0%
#172500000
r0.8117647058823486 W
r0.7962352941176469 P
r0.850588235294113 I
r0.835058823529411 B
11
b10100101 8
1%
#173000000
01
0%
#173500000
r0.8328470588235286 B
r0.8484705882352894 I
r0.7937882352941176 P
r0.8094117647058781 W
11
b10100110 8
1%
#174000000
01
0%
#174500000
r0.8070588235294075 W
r0.7913411764705882 P
r0.8463529411764659 I
r0.8306352941176463 B
11
b10100111 8
1%
#175000000
01
0%
#175500000
r0.8284235294117639 B
r0.8442352941176423 I
r0.7888941176470589 P
r0.8047058823529369 W
11
b10101000 8
1%
#176000000
01
0%
#176500000
r0.8023529411764664 W
r0.7864470588235295 P
r0.8421176470588188 I
r0.8262117647058815 B
11
b10101001 8
1%
#177000000
01
0%
#177500000
r0.8239999999999992 B
r0.8399999999999952 I
r0.7840000000000001 P
r0.7999999999999958 W
11
b10101010 8
1%
#178000000
01
0%
#178500000
r0.7976470588235253 W
r0.7815529411764708 P
r0.8378823529411716 I
r0.8217882352941168 B
11
b10101011 8
1%
#179000000
01
0%
#179500000
r0.8195764705882345 B
r0.8357647058823481 I
r0.7791058823529414 P
r0.7952941176470547 W
11
b10101100 8
1%
#180000000
01
0%
#180500000
r0.7929411764705842 W
r0.7766588235294121 P
r0.8336470588235245 I
r0.8173647058823521 B
11
b10101101 8
1%
#181000000
01
0%
#181500000
r0.8151529411764697 B
r0.831529411764701 I
r0.7742117647058827 P
r0.7905882352941136 W
11
b10101110 8
1%
#182000000
01
0%
