pixelArray_tb.vcd
$date
	Fri Nov 12 13:48:06 2021
$end
$version
	Icarus Verilog
$end
$timescale
	1ps
$end
$scope module pixelArray_tb $end
$var wire 1 ! anaReset $end
$var wire 8 " pixData1 [7:0] $end
$var wire 8 # pixData2 [7:0] $end
$var wire 8 $ pixData3 [7:0] $end
$var wire 8 % pixData4 [7:0] $end
$var wire 1 & read2 $end
$var wire 1 ' read1 $end
$var wire 1 ( expose $end
$var wire 1 ) erase $end
$var wire 1 * convert $end
$var wire 1 + anaRamp $end
$var wire 1 , anaBias1 $end
$var reg 1 - clk $end
$var reg 8 . data1 [7:0] $end
$var reg 8 / data2 [7:0] $end
$var reg 32 0 pixelDataOut [31:0] $end
$var reg 1 1 reset $end
$scope module pa1 $end
$var wire 8 2 DATA1 [7:0] $end
$var wire 8 3 DATA2 [7:0] $end
$var wire 8 4 DATA3 [7:0] $end
$var wire 8 5 DATA4 [7:0] $end
$var wire 1 + RAMP $end
$var wire 1 ! RESET $end
$var wire 1 , VBN1 $end
$var wire 1 & READ2 $end
$var wire 1 ' READ1 $end
$var wire 1 ( EXPOSE $end
$var wire 1 ) ERASE $end
$scope module ps1 $end
$var wire 8 6 DATA [7:0] $end
$var wire 1 + RAMP $end
$var wire 1 ! RESET $end
$var wire 1 , VBN1 $end
$var wire 1 ' READ $end
$var wire 1 ( EXPOSE $end
$var wire 1 ) ERASE $end
$var reg 1 7 cmp $end
$var reg 8 8 p_data [7:0] $end
$var real 1 9 adc $end
$var real 1 : lsb $end
$var real 1 ; tmp $end
$var real 1 < v_erase $end
$upscope $end
$scope module ps2 $end
$var wire 8 = DATA [7:0] $end
$var wire 1 + RAMP $end
$var wire 1 ! RESET $end
$var wire 1 , VBN1 $end
$var wire 1 ' READ $end
$var wire 1 ( EXPOSE $end
$var wire 1 ) ERASE $end
$var reg 1 > cmp $end
$var reg 8 ? p_data [7:0] $end
$var real 1 @ adc $end
$var real 1 A lsb $end
$var real 1 B tmp $end
$var real 1 C v_erase $end
$upscope $end
$scope module ps3 $end
$var wire 8 D DATA [7:0] $end
$var wire 1 + RAMP $end
$var wire 1 ! RESET $end
$var wire 1 , VBN1 $end
$var wire 1 & READ $end
$var wire 1 ( EXPOSE $end
$var wire 1 ) ERASE $end
$var reg 1 E cmp $end
$var reg 8 F p_data [7:0] $end
$var real 1 G adc $end
$var real 1 H lsb $end
$var real 1 I tmp $end
$var real 1 J v_erase $end
$upscope $end
$scope module ps4 $end
$var wire 8 K DATA [7:0] $end
$var wire 1 + RAMP $end
$var wire 1 ! RESET $end
$var wire 1 , VBN1 $end
$var wire 1 & READ $end
$var wire 1 ( EXPOSE $end
$var wire 1 ) ERASE $end
$var reg 1 L cmp $end
$var reg 8 M p_data [7:0] $end
$var real 1 N adc $end
$var real 1 O lsb $end
$var real 1 P tmp $end
$var real 1 Q v_erase $end
$upscope $end
$upscope $end
$scope module state1 $end
$var wire 1 - clk $end
$var wire 1 1 reset $end
$var reg 1 * convert $end
$var reg 1 ) erase $end
$var reg 1 ( expose $end
$var reg 3 R next_state [2:0] $end
$var reg 1 ' read1 $end
$var reg 1 & read2 $end
$var reg 3 S state [2:0] $end
$var integer 32 T counter [31:0] $end
$upscope $end
$upscope $end
$enddefinitions $end
#500000
$dumpvars
b0 T
b0 S
b0 R
r1.2 Q
r0 P
r0.004705882352941176 O
r0 N
bx M
xL
bx K
r1.2 J
r0 I
r0.004705882352941176 H
r0 G
bx F
xE
bx D
r1.2 C
r0 B
r0.004705882352941176 A
r0 @
bx ?
x>
bx =
r1.2 <
r0 ;
r0.004705882352941176 :
r0 9
bx 8
x7
bx 6
bx 5
bx 4
bx 3
bx 2
01
b0 0
b0 /
b0 .
1-
x,
0+
0*
x)
x(
x'
x&
bx %
bx $
bx #
bx "
1!
$end
#1000000
b0 %
b0 5
b0 K
b0 $
b0 4
b0 D
b0 #
b0 3
b0 =
b0 "
b0 2
b0 6
0L
b0 M
r1.2 P
0E
b0 F
r1.2 I
0>
b0 ?
r1.2 B
07
b0 8
r1.2 ;
0(
0&
0'
1)
0,
0-
#1500000
b1 T
1-
#2000000
0-
#2500000
b10 T
1-
#3000000
0-
#3500000
b11 T
1-
#4000000
0-
#4500000
b100 T
1-
#5000000
0-
#5500000
b101 T
1-
#6000000
0-
#6500000
b101 S
b1 R
b110 T
1-
#7000000
0)
0-
#7500000
b1 S
b0 T
1-
#8000000
1(
0-
#8500000
r1.197647058823529 P
r1.197647058823529 I
r1.197647058823529 B
r1.197647058823529 ;
1,
b1 T
1-
#9000000
0,
0-
#9500000
r1.195294117647059 ;
r1.195294117647059 B
r1.195294117647059 I
r1.195294117647059 P
1,
b10 T
1-
#10000000
0,
0-
#10500000
r1.192941176470588 P
r1.192941176470588 I
r1.192941176470588 B
r1.192941176470588 ;
1,
b11 T
1-
#11000000
0,
0-
#11500000
r1.190588235294117 ;
r1.190588235294117 B
r1.190588235294117 I
r1.190588235294117 P
1,
b100 T
1-
#12000000
0,
0-
#12500000
r1.188235294117647 P
r1.188235294117647 I
r1.188235294117647 B
r1.188235294117647 ;
1,
b101 T
1-
#13000000
0,
0-
#13500000
r1.185882352941176 ;
r1.185882352941176 B
r1.185882352941176 I
r1.185882352941176 P
1,
b110 T
1-
#14000000
0,
0-
#14500000
r1.183529411764705 P
r1.183529411764705 I
r1.183529411764705 B
r1.183529411764705 ;
1,
b111 T
1-
#15000000
0,
0-
#15500000
r1.181176470588235 ;
r1.181176470588235 B
r1.181176470588235 I
r1.181176470588235 P
1,
b1000 T
1-
#16000000
0,
0-
#16500000
r1.178823529411764 P
r1.178823529411764 I
r1.178823529411764 B
r1.178823529411764 ;
1,
b1001 T
1-
#17000000
0,
0-
#17500000
r1.176470588235293 ;
r1.176470588235293 B
r1.176470588235293 I
r1.176470588235293 P
1,
b1010 T
1-
#18000000
0,
0-
#18500000
r1.174117647058823 P
r1.174117647058823 I
r1.174117647058823 B
r1.174117647058823 ;
1,
b1011 T
1-
#19000000
0,
0-
#19500000
r1.171764705882352 ;
r1.171764705882352 B
r1.171764705882352 I
r1.171764705882352 P
1,
b1100 T
1-
#20000000
0,
0-
#20500000
r1.169411764705881 P
r1.169411764705881 I
r1.169411764705881 B
r1.169411764705881 ;
1,
b1101 T
1-
#21000000
0,
0-
#21500000
r1.167058823529411 ;
r1.167058823529411 B
r1.167058823529411 I
r1.167058823529411 P
1,
b1110 T
1-
#22000000
0,
0-
#22500000
r1.16470588235294 P
r1.16470588235294 I
r1.16470588235294 B
r1.16470588235294 ;
1,
b1111 T
1-
#23000000
0,
0-
#23500000
r1.162352941176469 ;
r1.162352941176469 B
r1.162352941176469 I
r1.162352941176469 P
1,
b10000 T
1-
#24000000
0,
0-
#24500000
r1.159999999999999 P
r1.159999999999999 I
r1.159999999999999 B
r1.159999999999999 ;
1,
b10001 T
1-
#25000000
0,
0-
#25500000
r1.157647058823528 ;
r1.157647058823528 B
r1.157647058823528 I
r1.157647058823528 P
1,
b10010 T
1-
#26000000
0,
0-
#26500000
r1.155294117647057 P
r1.155294117647057 I
r1.155294117647057 B
r1.155294117647057 ;
1,
b10011 T
1-
#27000000
0,
0-
#27500000
r1.152941176470587 ;
r1.152941176470587 B
r1.152941176470587 I
r1.152941176470587 P
1,
b10100 T
1-
#28000000
0,
0-
#28500000
r1.150588235294116 P
r1.150588235294116 I
r1.150588235294116 B
r1.150588235294116 ;
1,
b10101 T
1-
#29000000
0,
0-
#29500000
r1.148235294117645 ;
r1.148235294117645 B
r1.148235294117645 I
r1.148235294117645 P
1,
b10110 T
1-
#30000000
0,
0-
#30500000
r1.145882352941175 P
r1.145882352941175 I
r1.145882352941175 B
r1.145882352941175 ;
1,
b10111 T
1-
#31000000
0,
0-
#31500000
r1.143529411764704 ;
r1.143529411764704 B
r1.143529411764704 I
r1.143529411764704 P
1,
b11000 T
1-
#32000000
0,
0-
#32500000
r1.141176470588233 P
r1.141176470588233 I
r1.141176470588233 B
r1.141176470588233 ;
1,
b11001 T
1-
#33000000
0,
0-
#33500000
r1.138823529411763 ;
r1.138823529411763 B
r1.138823529411763 I
r1.138823529411763 P
1,
b11010 T
1-
#34000000
0,
0-
#34500000
r1.136470588235292 P
r1.136470588235292 I
r1.136470588235292 B
r1.136470588235292 ;
1,
b11011 T
1-
#35000000
0,
0-
#35500000
r1.134117647058821 ;
r1.134117647058821 B
r1.134117647058821 I
r1.134117647058821 P
1,
b11100 T
1-
#36000000
0,
0-
#36500000
r1.131764705882351 P
r1.131764705882351 I
r1.131764705882351 B
r1.131764705882351 ;
1,
b11101 T
1-
#37000000
0,
0-
#37500000
r1.12941176470588 ;
r1.12941176470588 B
r1.12941176470588 I
r1.12941176470588 P
1,
b11110 T
1-
#38000000
0,
0-
#38500000
r1.127058823529409 P
r1.127058823529409 I
r1.127058823529409 B
r1.127058823529409 ;
1,
b11111 T
1-
#39000000
0,
0-
#39500000
r1.124705882352939 ;
r1.124705882352939 B
r1.124705882352939 I
r1.124705882352939 P
1,
b100000 T
1-
#40000000
0,
0-
#40500000
r1.122352941176468 P
r1.122352941176468 I
r1.122352941176468 B
r1.122352941176468 ;
1,
b100001 T
1-
#41000000
0,
0-
#41500000
r1.119999999999997 ;
r1.119999999999997 B
r1.119999999999997 I
r1.119999999999997 P
1,
b100010 T
1-
#42000000
0,
0-
#42500000
r1.117647058823527 P
r1.117647058823527 I
r1.117647058823527 B
r1.117647058823527 ;
1,
b100011 T
1-
#43000000
0,
0-
#43500000
r1.115294117647056 ;
r1.115294117647056 B
r1.115294117647056 I
r1.115294117647056 P
1,
b100100 T
1-
#44000000
0,
0-
#44500000
r1.112941176470585 P
r1.112941176470585 I
r1.112941176470585 B
r1.112941176470585 ;
1,
b100101 T
1-
#45000000
0,
0-
#45500000
r1.110588235294115 ;
r1.110588235294115 B
r1.110588235294115 I
r1.110588235294115 P
1,
b100110 T
1-
#46000000
0,
0-
#46500000
r1.108235294117644 P
r1.108235294117644 I
r1.108235294117644 B
r1.108235294117644 ;
1,
b100111 T
1-
#47000000
0,
0-
#47500000
r1.105882352941173 ;
r1.105882352941173 B
r1.105882352941173 I
r1.105882352941173 P
1,
b101000 T
1-
#48000000
0,
0-
#48500000
r1.103529411764703 P
r1.103529411764703 I
r1.103529411764703 B
r1.103529411764703 ;
1,
b101001 T
1-
#49000000
0,
0-
#49500000
r1.101176470588232 ;
r1.101176470588232 B
r1.101176470588232 I
r1.101176470588232 P
1,
b101010 T
1-
#50000000
0,
0-
#50500000
r1.098823529411761 P
r1.098823529411761 I
r1.098823529411761 B
r1.098823529411761 ;
1,
b101011 T
1-
#51000000
0,
0-
#51500000
r1.096470588235291 ;
r1.096470588235291 B
r1.096470588235291 I
r1.096470588235291 P
1,
b101100 T
1-
#52000000
0,
0-
#52500000
r1.09411764705882 P
r1.09411764705882 I
r1.09411764705882 B
r1.09411764705882 ;
1,
b101101 T
1-
#53000000
0,
0-
#53500000
r1.091764705882349 ;
r1.091764705882349 B
r1.091764705882349 I
r1.091764705882349 P
1,
b101110 T
1-
#54000000
0,
0-
#54500000
r1.089411764705879 P
r1.089411764705879 I
r1.089411764705879 B
r1.089411764705879 ;
1,
b101111 T
1-
#55000000
0,
0-
#55500000
r1.087058823529408 ;
r1.087058823529408 B
r1.087058823529408 I
r1.087058823529408 P
1,
b110000 T
1-
#56000000
0,
0-
#56500000
r1.084705882352937 P
r1.084705882352937 I
r1.084705882352937 B
r1.084705882352937 ;
1,
b110001 T
1-
#57000000
0,
0-
#57500000
r1.082352941176467 ;
r1.082352941176467 B
r1.082352941176467 I
r1.082352941176467 P
1,
b110010 T
1-
#58000000
0,
0-
#58500000
r1.079999999999996 P
r1.079999999999996 I
r1.079999999999996 B
r1.079999999999996 ;
1,
b110011 T
1-
#59000000
0,
0-
#59500000
r1.077647058823525 ;
r1.077647058823525 B
r1.077647058823525 I
r1.077647058823525 P
1,
b110100 T
1-
#60000000
0,
0-
#60500000
r1.075294117647055 P
r1.075294117647055 I
r1.075294117647055 B
r1.075294117647055 ;
1,
b110101 T
1-
#61000000
0,
0-
#61500000
r1.072941176470584 ;
r1.072941176470584 B
r1.072941176470584 I
r1.072941176470584 P
1,
b110110 T
1-
#62000000
0,
0-
#62500000
r1.070588235294113 P
r1.070588235294113 I
r1.070588235294113 B
r1.070588235294113 ;
1,
b110111 T
1-
#63000000
0,
0-
#63500000
r1.068235294117643 ;
r1.068235294117643 B
r1.068235294117643 I
r1.068235294117643 P
1,
b111000 T
1-
#64000000
0,
0-
#64500000
r1.065882352941172 P
r1.065882352941172 I
r1.065882352941172 B
r1.065882352941172 ;
1,
b111001 T
1-
#65000000
0,
0-
#65500000
r1.063529411764701 ;
r1.063529411764701 B
r1.063529411764701 I
r1.063529411764701 P
1,
b111010 T
1-
#66000000
0,
0-
#66500000
r1.061176470588231 P
r1.061176470588231 I
r1.061176470588231 B
r1.061176470588231 ;
1,
b111011 T
1-
#67000000
0,
0-
#67500000
r1.05882352941176 ;
r1.05882352941176 B
r1.05882352941176 I
r1.05882352941176 P
1,
b111100 T
1-
#68000000
0,
0-
#68500000
r1.056470588235289 P
r1.056470588235289 I
r1.056470588235289 B
r1.056470588235289 ;
1,
b111101 T
1-
#69000000
0,
0-
#69500000
r1.054117647058818 ;
r1.054117647058818 B
r1.054117647058818 I
r1.054117647058818 P
1,
b111110 T
1-
#70000000
0,
0-
#70500000
r1.051764705882348 P
r1.051764705882348 I
r1.051764705882348 B
r1.051764705882348 ;
1,
b111111 T
1-
#71000000
0,
0-
#71500000
r1.049411764705877 ;
r1.049411764705877 B
r1.049411764705877 I
r1.049411764705877 P
1,
b1000000 T
1-
#72000000
0,
0-
#72500000
r1.047058823529406 P
r1.047058823529406 I
r1.047058823529406 B
r1.047058823529406 ;
1,
b1000001 T
1-
#73000000
0,
0-
#73500000
r1.044705882352936 ;
r1.044705882352936 B
r1.044705882352936 I
r1.044705882352936 P
1,
b1000010 T
1-
#74000000
0,
0-
#74500000
r1.042352941176465 P
r1.042352941176465 I
r1.042352941176465 B
r1.042352941176465 ;
1,
b1000011 T
1-
#75000000
0,
0-
#75500000
r1.039999999999994 ;
r1.039999999999994 B
r1.039999999999994 I
r1.039999999999994 P
1,
b1000100 T
1-
#76000000
0,
0-
#76500000
r1.037647058823524 P
r1.037647058823524 I
r1.037647058823524 B
r1.037647058823524 ;
1,
b1000101 T
1-
#77000000
0,
0-
#77500000
r1.035294117647053 ;
r1.035294117647053 B
r1.035294117647053 I
r1.035294117647053 P
1,
b1000110 T
1-
#78000000
0,
0-
#78500000
r1.032941176470582 P
r1.032941176470582 I
r1.032941176470582 B
r1.032941176470582 ;
1,
b1000111 T
1-
#79000000
0,
0-
#79500000
r1.030588235294112 ;
r1.030588235294112 B
r1.030588235294112 I
r1.030588235294112 P
1,
b1001000 T
1-
#80000000
0,
0-
#80500000
r1.028235294117641 P
r1.028235294117641 I
r1.028235294117641 B
r1.028235294117641 ;
1,
b1001001 T
1-
#81000000
0,
0-
#81500000
r1.02588235294117 ;
r1.02588235294117 B
r1.02588235294117 I
r1.02588235294117 P
1,
b1001010 T
1-
#82000000
0,
0-
#82500000
r1.0235294117647 P
r1.0235294117647 I
r1.0235294117647 B
r1.0235294117647 ;
1,
b1001011 T
1-
#83000000
0,
0-
#83500000
r1.021176470588229 ;
r1.021176470588229 B
r1.021176470588229 I
r1.021176470588229 P
1,
b1001100 T
1-
#84000000
0,
0-
#84500000
r1.018823529411758 P
r1.018823529411758 I
r1.018823529411758 B
r1.018823529411758 ;
1,
b1001101 T
1-
#85000000
0,
0-
#85500000
r1.016470588235288 ;
r1.016470588235288 B
r1.016470588235288 I
r1.016470588235288 P
1,
b1001110 T
1-
#86000000
0,
0-
#86500000
r1.014117647058817 P
r1.014117647058817 I
r1.014117647058817 B
r1.014117647058817 ;
1,
b1001111 T
1-
#87000000
0,
0-
#87500000
r1.011764705882346 ;
r1.011764705882346 B
r1.011764705882346 I
r1.011764705882346 P
1,
b1010000 T
1-
#88000000
0,
0-
#88500000
r1.009411764705876 P
r1.009411764705876 I
r1.009411764705876 B
r1.009411764705876 ;
1,
b1010001 T
1-
#89000000
0,
0-
#89500000
r1.007058823529405 ;
r1.007058823529405 B
r1.007058823529405 I
r1.007058823529405 P
1,
b1010010 T
1-
#90000000
0,
0-
#90500000
r1.004705882352934 P
r1.004705882352934 I
r1.004705882352934 B
r1.004705882352934 ;
1,
b1010011 T
1-
#91000000
0,
0-
#91500000
r1.002352941176464 ;
r1.002352941176464 B
r1.002352941176464 I
r1.002352941176464 P
1,
b1010100 T
1-
#92000000
0,
0-
#92500000
r0.9999999999999932 P
r0.9999999999999932 I
r0.9999999999999932 B
r0.9999999999999932 ;
1,
b1010101 T
1-
#93000000
0,
0-
#93500000
r0.9976470588235227 ;
r0.9976470588235227 B
r0.9976470588235227 I
r0.9976470588235227 P
1,
b1010110 T
1-
#94000000
0,
0-
#94500000
r0.9952941176470521 P
r0.9952941176470521 I
r0.9952941176470521 B
r0.9952941176470521 ;
1,
b1010111 T
1-
#95000000
0,
0-
#95500000
r0.9929411764705816 ;
r0.9929411764705816 B
r0.9929411764705816 I
r0.9929411764705816 P
1,
b1011000 T
1-
#96000000
0,
0-
#96500000
r0.990588235294111 P
r0.990588235294111 I
r0.990588235294111 B
r0.990588235294111 ;
1,
b1011001 T
1-
#97000000
0,
0-
#97500000
r0.9882352941176404 ;
r0.9882352941176404 B
r0.9882352941176404 I
r0.9882352941176404 P
1,
b1011010 T
1-
#98000000
0,
0-
#98500000
r0.9858823529411699 P
r0.9858823529411699 I
r0.9858823529411699 B
r0.9858823529411699 ;
1,
b1011011 T
1-
#99000000
0,
0-
#99500000
r0.9835294117646993 ;
r0.9835294117646993 B
r0.9835294117646993 I
r0.9835294117646993 P
1,
b1011100 T
1-
#100000000
0,
0-
#100500000
r0.9811764705882288 P
r0.9811764705882288 I
r0.9811764705882288 B
r0.9811764705882288 ;
1,
b1011101 T
1-
#101000000
0,
0-
#101500000
r0.9788235294117582 ;
r0.9788235294117582 B
r0.9788235294117582 I
r0.9788235294117582 P
1,
b1011110 T
1-
#102000000
0,
0-
#102500000
r0.9764705882352877 P
r0.9764705882352877 I
r0.9764705882352877 B
r0.9764705882352877 ;
1,
b1011111 T
1-
#103000000
0,
0-
#103500000
r0.9741176470588171 ;
r0.9741176470588171 B
r0.9741176470588171 I
r0.9741176470588171 P
1,
b1100000 T
1-
#104000000
0,
0-
#104500000
r0.9717647058823465 P
r0.9717647058823465 I
r0.9717647058823465 B
r0.9717647058823465 ;
1,
b1100001 T
1-
#105000000
0,
0-
#105500000
r0.969411764705876 ;
r0.969411764705876 B
r0.969411764705876 I
r0.969411764705876 P
1,
b1100010 T
1-
#106000000
0,
0-
#106500000
r0.9670588235294054 P
r0.9670588235294054 I
r0.9670588235294054 B
r0.9670588235294054 ;
1,
b1100011 T
1-
#107000000
0,
0-
#107500000
r0.9647058823529349 ;
r0.9647058823529349 B
r0.9647058823529349 I
r0.9647058823529349 P
1,
b1100100 T
1-
#108000000
0,
0-
#108500000
r0.9623529411764643 P
r0.9623529411764643 I
r0.9623529411764643 B
r0.9623529411764643 ;
1,
b1100101 T
1-
#109000000
0,
0-
#109500000
r0.9599999999999937 ;
r0.9599999999999937 B
r0.9599999999999937 I
r0.9599999999999937 P
1,
b1100110 T
1-
#110000000
0,
0-
#110500000
r0.9576470588235232 P
r0.9576470588235232 I
r0.9576470588235232 B
r0.9576470588235232 ;
1,
b1100111 T
1-
#111000000
0,
0-
#111500000
r0.9552941176470526 ;
r0.9552941176470526 B
r0.9552941176470526 I
r0.9552941176470526 P
1,
b1101000 T
1-
#112000000
0,
0-
#112500000
r0.9529411764705821 P
r0.9529411764705821 I
r0.9529411764705821 B
r0.9529411764705821 ;
1,
b1101001 T
1-
#113000000
0,
0-
#113500000
r0.9505882352941115 ;
r0.9505882352941115 B
r0.9505882352941115 I
r0.9505882352941115 P
1,
b1101010 T
1-
#114000000
0,
0-
#114500000
r0.948235294117641 P
r0.948235294117641 I
r0.948235294117641 B
r0.948235294117641 ;
1,
b1101011 T
1-
#115000000
0,
0-
#115500000
r0.9458823529411704 ;
r0.9458823529411704 B
r0.9458823529411704 I
r0.9458823529411704 P
1,
b1101100 T
1-
#116000000
0,
0-
#116500000
r0.9435294117646998 P
r0.9435294117646998 I
r0.9435294117646998 B
r0.9435294117646998 ;
1,
b1101101 T
1-
#117000000
0,
0-
#117500000
r0.9411764705882293 ;
r0.9411764705882293 B
r0.9411764705882293 I
r0.9411764705882293 P
1,
b1101110 T
1-
#118000000
0,
0-
#118500000
r0.9388235294117587 P
r0.9388235294117587 I
r0.9388235294117587 B
r0.9388235294117587 ;
1,
b1101111 T
1-
#119000000
0,
0-
#119500000
r0.9364705882352882 ;
r0.9364705882352882 B
r0.9364705882352882 I
r0.9364705882352882 P
1,
b1110000 T
1-
#120000000
0,
0-
#120500000
r0.9341176470588176 P
r0.9341176470588176 I
r0.9341176470588176 B
r0.9341176470588176 ;
1,
b1110001 T
1-
#121000000
0,
0-
#121500000
r0.9317647058823471 ;
r0.9317647058823471 B
r0.9317647058823471 I
r0.9317647058823471 P
1,
b1110010 T
1-
#122000000
0,
0-
#122500000
r0.9294117647058765 P
r0.9294117647058765 I
r0.9294117647058765 B
r0.9294117647058765 ;
1,
b1110011 T
1-
#123000000
0,
0-
#123500000
r0.9270588235294059 ;
r0.9270588235294059 B
r0.9270588235294059 I
r0.9270588235294059 P
1,
b1110100 T
1-
#124000000
0,
0-
#124500000
r0.9247058823529354 P
r0.9247058823529354 I
r0.9247058823529354 B
r0.9247058823529354 ;
1,
b1110101 T
1-
#125000000
0,
0-
#125500000
r0.9223529411764648 ;
r0.9223529411764648 B
r0.9223529411764648 I
r0.9223529411764648 P
1,
b1110110 T
1-
#126000000
0,
0-
#126500000
r0.9199999999999943 P
r0.9199999999999943 I
r0.9199999999999943 B
r0.9199999999999943 ;
1,
b1110111 T
1-
#127000000
0,
0-
#127500000
r0.9176470588235237 ;
r0.9176470588235237 B
r0.9176470588235237 I
r0.9176470588235237 P
1,
b1111000 T
1-
#128000000
0,
0-
#128500000
r0.9152941176470532 P
r0.9152941176470532 I
r0.9152941176470532 B
r0.9152941176470532 ;
1,
b1111001 T
1-
#129000000
0,
0-
#129500000
r0.9129411764705826 ;
r0.9129411764705826 B
r0.9129411764705826 I
r0.9129411764705826 P
1,
b1111010 T
1-
#130000000
0,
0-
#130500000
r0.910588235294112 P
r0.910588235294112 I
r0.910588235294112 B
r0.910588235294112 ;
1,
b1111011 T
1-
#131000000
0,
0-
#131500000
r0.9082352941176415 ;
r0.9082352941176415 B
r0.9082352941176415 I
r0.9082352941176415 P
1,
b1111100 T
1-
#132000000
0,
0-
#132500000
r0.9058823529411709 P
r0.9058823529411709 I
r0.9058823529411709 B
r0.9058823529411709 ;
1,
b1111101 T
1-
#133000000
0,
0-
#133500000
r0.9035294117647004 ;
r0.9035294117647004 B
r0.9035294117647004 I
r0.9035294117647004 P
1,
b1111110 T
1-
#134000000
0,
0-
#134500000
r0.9011764705882298 P
r0.9011764705882298 I
r0.9011764705882298 B
r0.9011764705882298 ;
1,
b1111111 T
1-
#135000000
0,
0-
#135500000
r0.8988235294117592 ;
r0.8988235294117592 B
r0.8988235294117592 I
r0.8988235294117592 P
1,
b10000000 T
1-
#136000000
0,
0-
#136500000
r0.8964705882352887 P
r0.8964705882352887 I
r0.8964705882352887 B
r0.8964705882352887 ;
1,
b10000001 T
1-
#137000000
0,
0-
#137500000
r0.8941176470588181 ;
r0.8941176470588181 B
r0.8941176470588181 I
r0.8941176470588181 P
1,
b10000010 T
1-
#138000000
0,
0-
#138500000
r0.8917647058823476 P
r0.8917647058823476 I
r0.8917647058823476 B
r0.8917647058823476 ;
1,
b10000011 T
1-
#139000000
0,
0-
#139500000
r0.889411764705877 ;
r0.889411764705877 B
r0.889411764705877 I
r0.889411764705877 P
1,
b10000100 T
1-
#140000000
0,
0-
#140500000
r0.8870588235294065 P
r0.8870588235294065 I
r0.8870588235294065 B
r0.8870588235294065 ;
1,
b10000101 T
1-
#141000000
0,
0-
#141500000
r0.8847058823529359 ;
r0.8847058823529359 B
r0.8847058823529359 I
r0.8847058823529359 P
1,
b10000110 T
1-
#142000000
0,
0-
#142500000
r0.8823529411764653 P
r0.8823529411764653 I
r0.8823529411764653 B
r0.8823529411764653 ;
1,
b10000111 T
1-
#143000000
0,
0-
#143500000
r0.8799999999999948 ;
r0.8799999999999948 B
r0.8799999999999948 I
r0.8799999999999948 P
1,
b10001000 T
1-
#144000000
0,
0-
#144500000
r0.8776470588235242 P
r0.8776470588235242 I
r0.8776470588235242 B
r0.8776470588235242 ;
1,
b10001001 T
1-
#145000000
0,
0-
#145500000
r0.8752941176470537 ;
r0.8752941176470537 B
r0.8752941176470537 I
r0.8752941176470537 P
1,
b10001010 T
1-
#146000000
0,
0-
#146500000
r0.8729411764705831 P
r0.8729411764705831 I
r0.8729411764705831 B
r0.8729411764705831 ;
1,
b10001011 T
1-
#147000000
0,
0-
#147500000
r0.8705882352941126 ;
r0.8705882352941126 B
r0.8705882352941126 I
r0.8705882352941126 P
1,
b10001100 T
1-
#148000000
0,
0-
#148500000
r0.868235294117642 P
r0.868235294117642 I
r0.868235294117642 B
r0.868235294117642 ;
1,
b10001101 T
1-
#149000000
0,
0-
#149500000
r0.8658823529411714 ;
r0.8658823529411714 B
r0.8658823529411714 I
r0.8658823529411714 P
1,
b10001110 T
1-
#150000000
0,
0-
#150500000
r0.8635294117647009 P
r0.8635294117647009 I
r0.8635294117647009 B
r0.8635294117647009 ;
1,
b10001111 T
1-
#151000000
0,
0-
#151500000
r0.8611764705882303 ;
r0.8611764705882303 B
r0.8611764705882303 I
r0.8611764705882303 P
1,
b10010000 T
1-
#152000000
0,
0-
#152500000
r0.8588235294117598 P
r0.8588235294117598 I
r0.8588235294117598 B
r0.8588235294117598 ;
1,
b10010001 T
1-
#153000000
0,
0-
#153500000
r0.8564705882352892 ;
r0.8564705882352892 B
r0.8564705882352892 I
r0.8564705882352892 P
1,
b10010010 T
1-
#154000000
0,
0-
#154500000
r0.8541176470588187 P
r0.8541176470588187 I
r0.8541176470588187 B
r0.8541176470588187 ;
1,
b10010011 T
1-
#155000000
0,
0-
#155500000
r0.8517647058823481 ;
r0.8517647058823481 B
r0.8517647058823481 I
r0.8517647058823481 P
1,
b10010100 T
1-
#156000000
0,
0-
#156500000
r0.8494117647058775 P
r0.8494117647058775 I
r0.8494117647058775 B
r0.8494117647058775 ;
1,
b10010101 T
1-
#157000000
0,
0-
#157500000
r0.847058823529407 ;
r0.847058823529407 B
r0.847058823529407 I
r0.847058823529407 P
1,
b10010110 T
1-
#158000000
0,
0-
#158500000
r0.8447058823529364 P
r0.8447058823529364 I
r0.8447058823529364 B
r0.8447058823529364 ;
1,
b10010111 T
1-
#159000000
0,
0-
#159500000
r0.8423529411764659 ;
r0.8423529411764659 B
r0.8423529411764659 I
r0.8423529411764659 P
1,
b10011000 T
1-
#160000000
0,
0-
#160500000
r0.8399999999999953 P
r0.8399999999999953 I
r0.8399999999999953 B
r0.8399999999999953 ;
1,
b10011001 T
1-
#161000000
0,
0-
#161500000
r0.8376470588235247 ;
r0.8376470588235247 B
r0.8376470588235247 I
r0.8376470588235247 P
1,
b10011010 T
1-
#162000000
0,
0-
#162500000
r0.8352941176470542 P
r0.8352941176470542 I
r0.8352941176470542 B
r0.8352941176470542 ;
1,
b10011011 T
1-
#163000000
0,
0-
#163500000
r0.8329411764705836 ;
r0.8329411764705836 B
r0.8329411764705836 I
r0.8329411764705836 P
1,
b10011100 T
1-
#164000000
0,
0-
#164500000
r0.8305882352941131 P
r0.8305882352941131 I
r0.8305882352941131 B
r0.8305882352941131 ;
1,
b10011101 T
1-
#165000000
0,
0-
#165500000
r0.8282352941176425 ;
r0.8282352941176425 B
r0.8282352941176425 I
r0.8282352941176425 P
1,
b10011110 T
1-
#166000000
0,
0-
#166500000
r0.825882352941172 P
r0.825882352941172 I
r0.825882352941172 B
r0.825882352941172 ;
1,
b10011111 T
1-
#167000000
0,
0-
#167500000
r0.8235294117647014 ;
r0.8235294117647014 B
r0.8235294117647014 I
r0.8235294117647014 P
1,
b10100000 T
1-
#168000000
0,
0-
#168500000
r0.8211764705882308 P
r0.8211764705882308 I
r0.8211764705882308 B
r0.8211764705882308 ;
1,
b10100001 T
1-
#169000000
0,
0-
#169500000
r0.8188235294117603 ;
r0.8188235294117603 B
r0.8188235294117603 I
r0.8188235294117603 P
1,
b10100010 T
1-
#170000000
0,
0-
#170500000
r0.8164705882352897 P
r0.8164705882352897 I
r0.8164705882352897 B
r0.8164705882352897 ;
1,
b10100011 T
1-
#171000000
0,
0-
#171500000
r0.8141176470588192 ;
r0.8141176470588192 B
r0.8141176470588192 I
r0.8141176470588192 P
1,
b10100100 T
1-
#172000000
0,
0-
#172500000
r0.8117647058823486 P
r0.8117647058823486 I
r0.8117647058823486 B
r0.8117647058823486 ;
1,
b10100101 T
1-
#173000000
0,
0-
#173500000
r0.8094117647058781 ;
r0.8094117647058781 B
r0.8094117647058781 I
r0.8094117647058781 P
1,
b10100110 T
1-
#174000000
0,
0-
#174500000
r0.8070588235294075 P
r0.8070588235294075 I
r0.8070588235294075 B
r0.8070588235294075 ;
1,
b10100111 T
1-
#175000000
0,
0-
#175500000
r0.8047058823529369 ;
r0.8047058823529369 B
r0.8047058823529369 I
r0.8047058823529369 P
1,
b10101000 T
1-
#176000000
0,
0-
#176500000
r0.8023529411764664 P
r0.8023529411764664 I
r0.8023529411764664 B
r0.8023529411764664 ;
1,
b10101001 T
1-
#177000000
0,
0-
